BRICS - Quantitative Data
…
# to remove date and add the years as one of the columns
merged_df = merged_df[, !grepl("X", names(merged_df))]
merged_df$Year = seq(1973, by = 1, length.out = nrow(merged_df))
merged_df = merged_df[, c("Year", names(merged_df)[!names(merged_df) %in% c("Year")])]
merged_df1 = as_tibble(merged_df)
print(merged_df1)

# A tibble: 50 x 11
    Year Index FDI.Current.Exp GDP.Per.Capita.Growth Government.Final.Consumpt~1
   <dbl> <int>           <dbl>                 <dbl>                       <dbl>
 1  1973     1      7410000000                  4.64                        16.8
 2  1974     2      1620000000                 -1.45                        17.2
 3  1975     3     11420000000                 -1.18                        17.6
 4  1976     4      8410000000                  4.39                        16.8
 5  1977     5      8360000000                  3.58                        16.4
 6  1978     6      8870000000                  4.42                        15.8
 7  1979     7     16670000000                  2.03                        15.4
 8  1980     8      2300000000                 -1.21                        15.9
 9  1981     9    -15570000000                  1.54                        15.8
10  1982    10    -13456000000                 -2.73                        16.6
# i 40 more rows
# i abbreviated name: 1: Government.Final.Consumption.Expenditure
# i 6 more variables: Imports.of.Goods.and.Services <dbl>,
#   Inflation..Consumer.Prices. <dbl>, Real.Interest.Rate <dbl>,
#   Central.Government.Debt <dbl>, Unemployement <dbl>,
#   Military.Expenditure <dbl>
…
